-49,31
-12,31
3,47
11,47
-90,114
-0,0
-55,-12
-13,20
3,48
-6,30
-0,0
-3,41
-5,43
-16222,14892
6,47
-22,16
-1118,1177
-333,404
-68,-36
-2874,2485
-27,25
-0,0
-0,0
-57,-19
-1282,928
-0,0
-0,0
18,52
-53,-11
35,74
-0,0
-0,0
-0,0
-0,0
-8,23
-2403,1878
-0,0
-8503,7747
-31,10
-30,4
-37,-3
-1,1
-33,14
-872,895
-1023,902
-0,0
-0,0
-966,840
-0,0
-0,0
-0,0
-0,0
-0,0
-17,25
-8,39
-0,0
-1499,1255
-27,12
60,115
-0,0
-673,971
-13,24
-2399,2108
-0,0
-38,-5
-41,-7
-0,0
18,57
-246,232
-0,0
-38,3
-0,0
-5,32
-0,0
-0,0
-371,306
-1646,2163
-0,0
-0,0
-389,504
-28,21
6,45
-19,19
-0,0
-359,244
-0,0
-58,1
-0,0
-41,-4
-48,0
-6,35
52,89
-6,34
9,61
-3,33
-62,163
-0,0
-17,24
-0,0
-3824,2619
-56,-8
29,75
-4967,4469
-31,5
-30,2
13,58
-0,0
-0,0
7,43
-32,10
-29,13
-10,23
14,55
-14,19
-4,37
-24,14
-0,0
-32,5
-34,0
-50,-14
-0,0
-52,-10
-0,0
-58,-7
-41,-7
-73,68
-375,237
18,57
1,40
1,47
-215,119
12,51
16,47
5,41
-433,470
-860,609
-72,-22
-0,0
-0,0
-5,33
-56,-20
-16034,13815
-14836,13071
-0,0
-0,0
-3853,4726
-1,30
-15,17
-545,491
-35,8
-14,32
-18,21
-0,0
-0,0
-1122,1335
-17,15
11,40
-20,16
-0,0
-10,29
-84,14
-667,820
-18,43
-41,-5
-0,0
-3917,3556
-24,22
-6,26
-0,0
-12,28
16,49
-1192,1014
-103714,92204
-20,23
-43,1
-1067,1041
15,67
-18,16
-45,37
-13,32
-0,0
-0,0
-12,41
-36,6
-0,0
-33,4
-22,19
-1883,1556
-0,0
-0,0
-365,292
-1926,1352
16,56
-30,8
-7,29
-0,0
-335,379
-10,34
-33,84
-0,0
14,53
-33,7
-7,34
-93,210
3,42
-0,0
-30,6
-12224,14272
-18,23
-56,-15
-43,-1
-61,-13
-10,30
14,47
-616,564
-0,0
-1907,1789
-3,32
-15,34
-68,-19
-9,29
-0,0
-399,533
-1922,1624
-281,343
-3660,3069
-24,9
-0,0
-19,22
-0,0
-0,0
-0,0
-0,0
-11,24
-0,0
-10,36
-24,17
-114,237
-32,2
-19,18
1,35
-16,17
-267,192
-42,-5
-0,0
-0,0
-34,13
-0,0
-8,34
21,60
-0,0
-27,17
-60041,65052
-895,824
-3130,3649
-0,0
-0,0
-21,37
-8,35
-1715,1794
-1376,1901
-0,0
-0,41
-20,44
-41,8
-0,0
-36,4
-1119,1054
-60,5
-23,14
-0,0
-28,24
-39,3
-0,0
-49,-7
8,45
-737,836
-0,0
-0,0
-0,0
-46,-3
-37,0
-120,32
-467,248
-6,30
-1,29
-9,41
-23,12
-22,11
-22,13
-1728,1316
-128,258
-1112,1268
39,92
-21,19
-0,0
-14,19
41,81
-0,0
-20,16
-755,1034
-51,40
-21,23
-21,20
-33,1
-9,22
-11,29
-75,-24
-0,0
-2833,2593
-0,0
-2536,1510
-20659,29096
-0,0
-379,333
-8,27
-11979,11522
-65,-2
-61,-23
-12,40
-492,486
-155,83
-2242,2546
-3,33
-12,28
-19,22
-0,0
-66,-25
22,57
-0,0
-23,27
-18,81
-4614,3633
-0,0
-30,8
7,39
-0,0
-18,24
-292,200
-0,0
-0,0
-57,-22
-16,19
14,57
-1524,1211
-55,-17
-3369,4195
-0,0
2,42
-21,20
-23,14
23,70
17,58
-31,21
-34,1
-0,0
-0,0
-0,0
-1119,982
-0,0
-0,0
-9,32
-7,81
15,54
-8,36
-0,0
-16,25
-0,0
-3490,2928
-3937,4796
-0,0
-4672,4539
13,47
-34,11
-0,0
-976,832
-1394,1537
-0,0
-5,41
-8,24
-0,0
13,47
-88,68
-2082,2137
-11,32
-323,435
-17,19
-12,31
3,37
11,47
-578,549
9,46
-7541,8888
-74,-31
-2033,2190
25,56
-0,0
-8,85
-0,0
-573,576
10,50
-0,0
-29,21
-19,24
-1602,1138
-16,18
-3,60
-2575,1917
21,67
-39859,42190
-17,37
-2139,1554
-397,631
-0,0
-0,0
18,66
-405,638
-1607,1200
-0,0
-31,20
-10,25
-0,0
-0,0
-0,0
-37,0
-0,0
-6,39
-0,0
-0,0
-2647,3375
-25,21
-2119,1540
-55,-19
2,40
-5,28
-19,38
-152,91
-36,1
-211,104
-25,21
-39,-6
-0,0
-36,4
-1736,1709
23,67
-0,0
-0,0
-47,-2
-27,18
18,66
-89,24
-38,2
-52,-13
-115,101
-1544,1135
18,56
-0,0
-21,16
-38,13
-263,111
-26577,27859
23,60
-2580,2291
-32,7
-37,2
-28,15
-1,37
-1948,2366
40,82
-158,119
-1280,907
-20546,25796
-1,33
-140,124
-21,19
12,57
-17,27
-0,0
-33,11
-21,33
-8414,10688
-0,0
-0,0
-7530,6297
-4823,3916
-7,28
-0,0
-12,27
-81,-46
-1296,1098
-5152,4579
-0,0
-344,391
-0,0
-36,0
-33,5
-6,33
8,44
22,60
-0,0
-2427,2259
-23,18
4,49
-23,9
-72,-7
-31,6
-19,21
-363,303
-11,35
-971,931
-71,-1
-0,0
