-833,198,
-49,38,
-8,29,
-12,40,
56,102,
-146,460,
44,125,
-40,22,
1,67,
-171,99,
-29,5,
11,22,
-90,-22,
5859,16630,
-8,23,
247,805,
-50,-17,
-2228,-479,
23,56,
-36,46,
-82,-37,
3,48,
-5938,-111,
-102,108,
-15,33,
-140,-58,
-23,40,
4,478,
12,55,
-18,40,
-17,19,
50,107,
-42,35,
-12,29,
-26,9,
-32,38,
-11,14,
-14,13,
-29,8,
-12,26,
-25,9,
-8,15,
48,143,
-466,1611,
29,77,
-926,111,
-18,946,
-22,19,
-65,40,
-25,15,
-43,-14,
-123,-53,
87,855,
48,111,
-112,-40,
-290,73,
-132,-65,
36,136,
17,70,
-1544,-383,
-16,107,
-60334,-20642,
-4,760,
-310,-13,
