87,116
16,37
37,60
5633,16650
-12,12
-61,-33
-94,-72
64,88
-30,18
-98,-74
-63,-35
113,141
-124,-94
16,32
-33,24
115,251
20,46
53,74
1,18
-59,-36
112,140
2502,7139
44,65
-1780,1866
-15569,-5321
-73,-52
-67,-39
144,169
-788,804
43,70
40,67
113,209
-39,-9
34,62
10,126
-28,-10
24,49
-4123,3491
-92,-67
63,89
-8082,-2831
-2727,-1029
-11,25
100,170
10,35
-52,13
-133,-92
-68,4
60,95
83,109
-1071,968
-67,-48
-680,833
56,82
-5,26
17,54
-46,-20
64,80
-90,-65
-109,-78
13,36
-39,-11
55,73
44,75
-10,13
-93,-72
-825,725
-59,-34
49,72
-743,734
-104,-87
-56,-29
56,78
-78,-56
-73,-57
-51,38
47,67
-20,18
-15,8
-59,66
-105,-84
71,92
-38,-15
-1771,2307
76,104
18,47
-84,-58
7,27
15,39
45,68
-98,-79
-63,-13
5161,14744
-103,-76
-26,-3
9,31
-119,-92
-26,15
-6,17
-28198,-9811
109,136
-3,21
31883,94291
53,106
-76,-51
3,22
21,42
-118,-90
-5755,8502
9217,26528
7039,20458
33,60
38,59
0,30
15896,47234
-111,-81
62,87
-77,47
-11333,-4090
-114,-91
-40,-16
21,49
-54,26
-444,424
-42,52
-1350,1308
66,88
-36,20
-46263,-16261
11941,33357
9943,28416
44,76
1673,4694
-92,-69
1596,4541
22,40
22,43
-104,-75
63,104
-118,-87
88,116
-56,-26
-87,-60
-129,-102
-70,-45
39,59
5,49
33,55
-3,17
-1,21
-21,2
-54,-8
-66,-41
-42,-9
-23335,-8151
27,53
-1057,900
-100,-76
-2599,3011
-2811,2926
-40,-11
-43,30
-70776,-24067
-77,-57
-109,-86
44,68
50,78
-619,539
-3298,2130
-89,-61
-1579,1968
142,165
38,63
23,43
-66,-46
36,57
-107,-79
-76212,-26102
-60,-39
-132,-113
-2891,3429
-39,-14
4993,13977
87,116
-60,-17
75,97
-33,-17
-10,20
-93,-73
-14009,-4798
-107,-85
-88,-67
-30,-10
39,67
-82,-60
10,35
-84465,-29088
-34,-9
39,65
66,99
34,58
21,42
74,95
-75,20
11,32
64,95
-98,-68
27,53
-7,16
36034,105709
56,142
-23,-5
13,38
11,48
-8,45
133,262
15,43
59,82
-22,14
-84,-46
-12,16
-80,-58
-98,-77
7,36
38,60
-35,-5
7,35
28,49
-8205,-2926
-100,-72
-11,103
1,24
-1111,1150
-358,308
-2,20
79,101
22,49
-84,-37
31,57
-75,-47
33,57
6,29
-45,-27
63,84
-61,-32
-94,-74
-7,17
57,78
51,68
17,49
-72740,58950
-22,-1
-41,-15
36,58
-38,-14
-63,-27
