168,186
153,169
51,174
96,224
141,160
46,160
130,150
198,215
210,227
193,211
153,172
220,237
213,232
174,191
-60,102
123,138
101,119
217,233
168,187
221,239
188,206
186,208
-125,257
110,132
140,160
135,205
162,181
93,111
65,147
-4,226
143,158
162,179
204,221
226,244
13,300
267,287
191,212
80,182
181,197
220,237
185,200
58,150
23,114
100,232
192,208
110,129
243,262
183,202
197,216
191,208
111,255
225,244
164,182
31,123
114,136
88,110
192,210
336,353
187,209
173,190
40,149
143,163
52,114
173,189
176,192
111,128
214,230
187,203
221,239
-6,244
244,262
171,187
-68,228
192,208
218,235
206,226
0,170
90,181
-54,475
-76,87
-206,652
-20,249
241,258
233,252
216,233
39,167
139,159
144,164
200,218
180,197
104,183
200,216
165,181
-15,171
125,142
263,279
226,243
212,229
142,161
171,190
212,231
224,241
30,236
-27,180
188,208
232,252
171,187
140,164
74,219
139,156
74,283
118,200
172,191
153,169
135,206
167,183
234,254
248,264
195,211
212,228
211,225
118,227
200,218
152,169
39,170
97,118
192,210
229,247
246,264
188,207
338,355
-470,-1
264,283
177,193
163,183
152,169
157,177
22,53
129,145
212,229
-28,301
220,237
206,227
178,195
21,187
48,162
114,134
118,136
212,225
190,208
8,232
152,171
225,242
207,226
251,271
190,210
192,209
210,226
174,190
219,238
196,213
-67,-46
132,150
167,183
103,194
242,259
210,229
67,87
-53,287
57,206
171,189
-75,241
181,198
67,220
231,249
201,219
193,212
189,208
7,88
116,133
61,225
222,240
183,200
156,177
200,218
187,203
152,170
232,249
184,204
213,231
163,184
159,178
91,202
2,151
185,201
54,160
55,237
252,268
188,205
181,201
87,118
251,267
-76,112
-20,238
3,136
212,229
242,258
271,289
128,146
235,254
227,245
137,157
180,199
145,164
148,167
50,156
206,226
184,204
215,233
169,186
196,213
1,203
259,276
234,255
-16,148
171,192
243,262
180,199
17,160
129,147
148,163
54,167
179,198
213,229
133,154
164,179
14,157
143,161
240,257
176,196
235,255
112,209
-3,175
149,168
245,260
24,217
172,188
202,219
119,138
169,188
1,221
86,165
184,204
70,181
22,157
176,192
155,172
260,280
125,143
148,166
118,138
195,210
62,159
244,262
205,223
17,152
183,201
67,173
197,216
111,131
76,150
135,154
200,217
182,200
118,270
222,240
219,238
122,234
-110,188
165,184
172,192
116,135
10,306
0,144
243,262
71,184
66,143
212,232
220,237
-17,193
202,221
141,157
78,160
235,252
197,215
148,236
222,240
269,287
60,174
37,240
-59,61
264,282
196,212
102,223
218,233
-191,129
193,210
63,244
7,164
81,267
227,245
16,174
173,191
168,190
225,244
224,244
103,197
241,262
231,248
136,152
47,220
263,282
107,224
211,233
371,387
267,287
258,273
163,182
108,235
-1,145
289,309
27,43
151,168
201,222
178,196
189,205
16,159
35,262
120,139
-46,131
201,221
268,283
203,224
211,231
191,210
223,243
302,320
200,218
219,238
-11,190
57,230
146,166
-59,126
237,254
-2,126
134,156
209,228
90,223
-647,3158
185,202
157,180
200,218
195,213
67,207
207,226
38,225
130,147
278,294
22,221
48,143
212,229
229,247
160,179
182,199
232,250
196,213
164,184
205,221
222,241
211,230
45,152
227,243
88,109
259,275
102,118
45,152
245,259
26,135
241,258
36,185
213,232
225,243
172,193
270,285
225,244
-26,181
-124,63
135,151
251,272
135,205
75,226
249,267
174,196
-23,206
173,191
178,195
170,189
141,156
99,204
215,233
135,154
84,197
145,165
245,259
173,191
35,182
177,194
102,206
228,249
155,170
41,228
-129,152
20,45
176,196
185,203
177,195
107,126
131,152
44,206
196,211
209,228
241,258
150,172
74,93
-58,50
128,145
205,220
119,135
196,214
48,154
242,264
197,215
175,192
146,164
20,250
103,119
196,216
178,193
123,143
234,255
123,197
163,182
38,222
235,253
148,165
115,135
50,174
214,234
144,163
-23,72
191,207
-111,209
222,240
264,281
248,265
191,207
225,242
247,265
88,231
77,206
255,274
229,246
174,194
167,185
187,206
92,213
198,216
162,181
234,253
198,217
2,95
23,134
33,229
90,178
156,173
11,303
230,251
220,240
-27,82
85,223
160,177
205,224
257,276
63,189
238,261
197,215
146,166
164,183
220,237
93,218
221,239
221,240
178,197
219,238
280,294
224,242
246,265
133,151
175,190
114,234
182,203
111,126
