53,69
44,62
48,67
55,73
-1483,2445
-82,-61
37,57
56,75
63,82
63,84
36,58
-76,-55
-56,-31
-1,26
10,32
-7,12
14,30
-54,150
28,47
38,58
20,39
66,85
-17,1
52,71
32,60
-49,-27
63,83
-1959,4113
31,53
26,44
-6,12
-73,-54
37,58
-388,513
-65,-37
35,53
36,52
-653,330
25,43
5,33
13,36
43,57
-98,-73
35,54
37,55
14,34
33,53
36,56
58,81
57,71
-1369,577
-2637,6330
-32,-10
15,37
-801,2618
31,51
12,33
29,54
15,30
57,75
8,23
-1469,1111
-1700,2610
36,59
