103.00369262695,131.6764831543
106.27198791504,134.41606140137
-521.15576171875,1049.4255371094
-31.411005020142,11.251244544983
129.98323059082,159.8754119873
118.28071594238,149.48861694336
126.97309875488,158.32412719727
-34.271820068359,124.37842559814
179.42944335938,213.27183532715
103.78031921387,136.33372497559
133.33776855469,163.7884979248
-13.160873413086,202.22401428223
-1593.7053222656,9562.9638671875
128.09140014648,155.07562255859
183.48504638672,211.71484375
139.66844177246,168.20321655273
-54.093421936035,148.31704711914
157.9295501709,186.04537963867
136.86166381836,163.59130859375
-26.720609664917,91.363265991211
127.76248168945,160.75604248047
93.545532226562,125.65508270264
140.50987243652,170.06701660156
153.46513366699,183.9945526123
121.21449279785,149.01983642578
69.924652099609,100.44283294678
-5.030553817749,139.96157836914
134.55227661133,162.21905517578
123.85162353516,150.46990966797
140.62504577637,170.4900970459
-7.8972706794739,100.14228820801
-72.577239990234,124.03888702393
127.30117034912,156.42065429688
165.35775756836,192.90855407715
-36.450798034668,89.353080749512
166.11157226562,197.89530944824
92.379905700684,121.00101470947
151.30499267578,180.42147827148
98.247283935547,125.33767700195
109.09743499756,139.11947631836
-28.663999557495,119.37292480469
104.86289215088,136.14248657227
159.77168273926,190.69946289062
-26.853639602661,182.2138671875
142.74670410156,171.66749572754
127.68515014648,160.00086975098
193.75263977051,225.41609191895
126.95832824707,153.82460021973
-39.893306732178,94.438583374023
151.36787414551,178.05206298828
122.85955047607,155.51480102539
-1217.0836181641,3648.4311523438
-314.1594543457,163.58911132812
163.80595397949,193.15641784668
-45.604381561279,154.78312683105
119.81449890137,150.03950500488
140.18336486816,170.24188232422
142.70709228516,170.30236816406
141.40385437012,170.02633666992
94.038047790527,118.90242767334
98.819114685059,125.93779754639
139.32806396484,166.68296813965
-632.17651367188,1313.9720458984
-59.473262786865,230.94337463379
138.1604309082,168.13708496094
151.81900024414,182.43031311035
120.00357818604,148.14801025391
158.07960510254,185.50703430176
148.54573059082,177.5574798584
261.2483215332,3362.2404785156
128.34941101074,156.09799194336
7.4528322219849,98.687728881836
127.83117675781,156.0220489502
144.02317810059,171.97230529785
136.32441711426,165.93202209473
162.87490844727,195.10754394531
126.08637237549,154.76606750488
149.39204406738,178.66015625
114.14487457275,143.42413330078
136.0496673584,168.220703125
-45.963935852051,92.918922424316
-374.95669555664,1054.6173095703
140.8814239502,170.19311523438
133.62161254883,162.46044921875
93.784599304199,128.16505432129
176.33665466309,206.77314758301
137.07470703125,163.11943054199
99.28076171875,128.95713806152
85.74877166748,116.53439331055
-12514.881835938,3471.6589355469
110.34352874756,138.45776367188
128.67967224121,157.47785949707
110.13368225098,139.41653442383
101.81773376465,128.34727478027
-1081.5288085938,15774.994140625
115.57531738281,146.33599853516
80.02734375,114.41126251221
125.80080413818,153.33953857422
142.29598999023,168.16435241699
-368.48840332031,1566.3287353516
91.431060791016,120.99745178223
134.78120422363,165.14657592773
178.5775604248,208.7119140625
141.80099487305,171.9998626709
-46.286098480225,111.6481552124
-695.45629882812,279.94650268555
137.36544799805,166.29368591309
115.62319946289,148.12324523926
121.94139862061,153.73329162598
142.84655761719,174.04675292969
125.19655609131,150.89332580566
148.0445098877,178.42474365234
178.7982635498,209.3782043457
108.48296356201,136.59117126465
129.08012390137,156.56684875488
164.35452270508,191.26266479492
128.77191162109,162.06307983398
138.76824951172,166.16278076172
128.36950683594,155.72534179688
19.671855926514,65.522155761719
-43.493225097656,133.95825195312
111.78082275391,137.00276184082
-3.8106236457825,127.15533447266
138.79020690918,166.02098083496
124.29524230957,153.62091064453
121.44845581055,147.9056854248
123.28705596924,151.14540100098
73.421600341797,103.05653381348
-62.827453613281,406.84271240234
138.11592102051,164.72981262207
-7.4678554534912,101.53745269775
121.50065612793,151.25872802734
172.61158752441,200.1981048584
117.33700561523,144.4255065918
121.37795257568,151.20889282227
127.61643218994,160.14085388184
-11.797575950623,126.27035522461
130.80693054199,158.64601135254
140.13745117188,171.74307250977
159.24937438965,187.51457214355
182.45756530762,209.90570068359
168.48188781738,199.41223144531
94.778511047363,121.39389038086
-45.595764160156,138.66569519043
97.485336303711,124.12342071533
126.694480896,155.07403564453
154.05992126465,184.32359313965
138.78860473633,166.7578125
117.00617218018,145.94920349121
145.73474121094,179.22569274902
161.19512939453,191.15161132812
114.00110626221,142.63212585449
142.14811706543,172.67721557617
-33.546398162842,161.36015319824
111.61009216309,137.87019348145
-919.23895263672,353.529296875
132.8556060791,165.00994873047
135.85620117188,162.56271362305
149.61254882812,182.26316833496
157.9690246582,188.01704406738
70.54337310791,99.349311828613
13.629818916321,163.01629638672
107.45040893555,138.57710266113
-55.257984161377,186.39938354492
104.18755340576,133.22979736328
134.21922302246,166.44821166992
121.39489746094,155.79983520508
106.43798065186,135.98495483398
90.213882446289,117.1711730957
136.27844238281,167.4328918457
76.389640808105,103.90591430664
-937.13879394531,148.09051513672
-1763.646484375,7228.4438476562
96.433128356934,125.56627655029
4.3332347869873,140.1982421875
-196.84550476074,145.87739562988
129.8818359375,159.95030212402
170.4090423584,203.6233215332
109.08262634277,139.34455871582
92.391265869141,123.48223876953
156.88745117188,188.03939819336
166.25439453125,198.21179199219
21.906414031982,121.02916717529
143.58697509766,173.11360168457
114.77830505371,144.79780578613
160.89730834961,186.09257507324
81.182838439941,111.38034820557
-6.5012516975403,98.372993469238
135.4340057373,163.12727355957
-55.016445159912,91.326545715332
128.87355041504,158.6309967041
143.10903930664,172.07344055176
105.78887176514,143.05703735352
137.69486999512,170.02658081055
128.71806335449,161.15153503418
134.08758544922,164.15943908691
88.405601501465,117.93476104736
120.76471710205,147.86596679688
-42.762634277344,76.469375610352
-18.292491912842,159.0435333252
24.941673278809,144.38273620605
79.581199645996,112.57518005371
171.68734741211,202.28886413574
136.89263916016,166.89654541016
-42.467121124268,100.99954986572
163.6397857666,191.53198242188
-1059.3978271484,563.15740966797
91.67455291748,121.2080078125
-42.855884552002,78.793930053711
103.27536773682,130.12622070312
171.6767578125,203.95080566406
122.90160369873,154.51705932617
105.21649169922,139.41857910156
111.53527069092,142.30801391602
112.68839263916,142.14668273926
141.4998626709,173.76361083984
152.10299682617,185.10256958008
159.62557983398,195.0280456543
122.99598693848,150.74179077148
156.79203796387,186.15727233887
115.26885986328,145.44355773926
153.90718078613,181.43284606934
108.57637023926,138.97598266602
-17.526786804199,103.07660675049
128.96606445312,157.04064941406
180.70140075684,214.6554107666
-27.825899124146,109.8251953125
75.948776245117,102.40259552002
125.8397064209,159.82580566406
122.14901733398,151.32682800293
135.56161499023,166.03515625
138.69502258301,166.541015625
149.2283782959,178.0202331543
134.19508361816,160.66249084473
110.09526824951,140.6513671875
150.91537475586,183.0406036377
105.17039489746,132.54814147949
98.08740234375,127.68727111816
14.058058738708,105.64250183105
96.618095397949,123.59013366699
120.46563720703,147.1559753418
126.62721252441,160.72718811035
107.89501190186,137.93992614746
155.7420501709,182.33723449707
150.04981994629,185.36996459961
105.45182800293,134.02607727051
111.61373901367,144.47320556641
134.58953857422,161.27355957031
138.02682495117,167.60997009277
-25.019952774048,157.25999450684
127.72678375244,154.99523925781
109.02407836914,133.93563842773
22.200607299805,137.98539733887
-283.34027099609,184.67918395996
110.63540649414,138.18078613281
99.342155456543,131.08923339844
