-32,-4
0,0
-3,21
6,35
-4,24
-13,14
-6,22
-39,-7
-5,19
-6041,8170
-19,9
-24,4
-23,4
7,32
-25,3
10,38
-338,111
-22,2
-18,10
20,47
18,42
-16,16
-12,23
-15,12
-15,16
-15,15
-4,24
-17,16
-11,19
-22,14
-841,567
-11,13
-31,-8
-17,7
-9,20
-8,16
-31,-3
5,31
-3,25
-14,13
-454,694
-3,26
-44,84
-954,525
-6,17
-20,5
-2153,3641
-36,-8
-29,0
-12,14
-19,13
-20,11
-17,6
-10,12
-305,500
-316,163
-10,16
-11,12
-38,-7
-27,-4
-23,22
-282,534
-7,30
-64,109
-27,6
-765,711
-29,-3
-14,13
-9,18
-5,22
-71,69
8,36
-19,10
-31,8
0,0
-11,13
-179,301
-155,261
-8,21
-123,172
-34,-5
-27,-4
0,0
-8,18
-30,12
-7,18
-45,-19
-72,28
-28,-4
6,33
5,29
-26,0
-91,64
0,0
14,43
-11,16
-322,144
-7,16
-14,16
-20,9
-202,96
9,31
15,39
-25,3
-475,761
-38,19
-52,-28
-37,-12
-36,-12
-2,26
-29,4
-12,18
-18,18
-10,28
-681,1108
-4,19
-30,8
-7,18
-83,118
-21,7
-6,19
-266,164
-2,27
-50,-23
-140,141
-17688,10116
-6,17
-30,2
-47,-20
-11,14
-3,28
0,0
-12,17
6,33
-18,8
17,49
-5,18
-7,24
-16,13
-4,18
-16,12
-2,24
-574,401
10,46
-169,344
-15,14
-11,16
-1084,1581
-19,3
-808,603
-12,16
-16,10
-340,244
-26,16
-80,158
-11,20
0,0
-64,108
8,35
-510,228
-219,131
-5,22
-4,25
-18,10
-25,2
-21,6
-17,5
12,38
-31,-6
-7,21
-17,8
-9,16
-1432,1018
-772,514
-24,5
-10,19
-31,-6
-16,10
-174,127
-75,104
-29,-5
-34,-5
-25,3
-367,174
0,28
-11,17
-21,8
-380,731
-30,-6
-8,13
-3601,2315
0,0
-22,5
-1610,1183
6,31
-7,19
-195,67
-3,22
-41,-12
5,38
-25,5
0,0
-14,12
-43,-4
-19,7
-26,4
-23,3
-13,49
-24,3
-107,164
0,0
-131,109
-442,279
-12,49
-378,238
-9,22
-15,13
-207,291
42,74
2,31
-1,27
-123,53
-31,112
-19,5
-803,1153
-621,339
-11,22
-19,65
-152,164
-36,-11
-10,13
-28,-5
-133,57
-10,20
-24,5
-16,11
-24,6
7,30
-164,290
-5,20
-24,9
0,0
-27,3
-3776,5509
10,33
-23,6
-175,278
8,35
-26,30
2,26
-6,22
-23,8
-18,12
13,37
-26,2
-9,21
