-1.545636177063,26.860191345215
-1.0558655261993,26.491167068481
-31.267763137817,-2.2685310840607
-8.2225522994995,19.096075057983
-2.5968608856201,25.507486343384
-21.858896255493,8.7998485565186
-20.907592773438,8.5598669052124
-11.077855110168,42.500881195068
-8.9147863388062,29.908500671387
-41.906665802002,3.6744151115417
-21.44994354248,7.7126975059509
-6.1453371047974,21.18285369873
-19.903263092041,7.9497561454773
-3.4421665668488,30.009359359741
-11.779125213623,16.823616027832
-20.708457946777,17.161373138428
-54.478401184082,-18.436229705811
-19.272930145264,8.1918926239014
-1.4307726621628,26.97661781311
-27.13264465332,-0.065604895353317
-19.809860229492,7.9555559158325
-13.297741889954,30.783744812012
-29.595300674438,-1.7382711172104
9.9514036178589,50.477725982666
-2.4284000396729,24.412225723267
1.3169726133347,28.232738494873
-15.375491142273,13.808033943176
31.090925216675,75.487442016602
-17.973293304443,9.8431558609009
-9.7741870880127,18.80034828186
-0.4894363284111,27.67455291748
-45.293228149414,20.487258911133
-62.173118591309,-4.1057887077332
-23.958700180054,2.1560955047607
-7.3126940727234,25.84058380127
-3.5812120437622,27.150491714478
-19.979724884033,8.4101715087891
-24.537738800049,10.90938949585
6.3094058036804,32.674301147461
-8.9771547317505,16.44614982605
-16.033496856689,11.574521064758
-21.793737411499,4.7419047355652
-2.5853741168976,25.073198318481
3.7979626655579,32.453128814697
-11.213723182678,15.861346244812
0.50758934020996,25.438259124756
-37.581302642822,15.281744003296
-17.259777069092,18.135927200317
6.0802931785583,32.753890991211
-20.282915115356,8.0860815048218
-23.074975967407,28.367498397827
-27.100801467896,-0.71016979217529
-19.408935546875,8.3411808013916
-45.584812164307,-1.0577421188354
-8.5721063613892,17.911781311035
-14.662250518799,13.514123916626
-8.7050075531006,20.955278396606
-6.3522067070007,14.993476867676
-15.635023117065,28.964637756348
-21.191020965576,2.626106262207
-25.068447113037,3.1038973331451
-16.054229736328,27.211721420288
-51.366260528564,19.825443267822
-12.551490783691,12.74462223053
-12.711010932922,15.681617736816
9.2565240859985,42.162006378174
-5.6844658851624,23.337394714355
-29.62140083313,0.56340825557709
-19.42488861084,9.447021484375
-9.2810144424438,17.993068695068
-9.5998802185059,20.795551300049
-46.615352630615,14.419637680054
-39.284927368164,-7.8495202064514
-21.719200134277,3.3962626457214
-15.033932685852,12.178032875061
-46.118633270264,6.9223980903625
-10.639519691467,14.626654624939
-18.779361724854,9.8786745071411
-11.122937202454,17.588172912598
1.6292405128479,55.097999572754
-31.656564712524,-4.6651329994202
22.046346664429,57.086879730225
-13.051471710205,15.73361492157
-27.407308578491,1.0745952129364
-17.51439666748,10.349376678467
-17.69185256958,7.8304243087769
-7.1458253860474,21.387159347534
-19.127439498901,9.7952032089233
-2.9088730812073,44.859405517578
-21.491535186768,2.1977496147156
-10.240530014038,26.553876876831
-4.8062810897827,21.575662612915
-10.884258270264,16.846815109253
-13.640307426453,13.316916465759
-3.4602282047272,23.72779083252
11.718863487244,84.544075012207
-0.77243649959564,49.323577880859
-27.962837219238,0.51024854183197
-12.349500656128,15.478954315186
-33.544200897217,-6.6212291717529
-8.6865539550781,17.821573257446
-6.6834344863892,25.522466659546
-17.284646987915,21.705307006836
-13.238554000854,15.351450920105
-3.9559140205383,24.38267326355
-76.798416137695,-33.584915161133
-19.087703704834,9.4573526382446
0.2697240114212,25.996538162231
-19.373266220093,8.2598705291748
-14.812077522278,11.057065963745
-5.4347758293152,36.55708694458
-15.268508911133,35.17599105835
-18.526073455811,9.2197380065918
4.2713031768799,40.233974456787
-23.870422363281,16.599052429199
-5.9840974807739,22.066200256348
-8.6236724853516,19.587228775024
-2.5292081832886,25.990102767944
-2.1722822189331,25.353416442871
-11.214092254639,15.745540618896
-38.404861450195,-9.0917196273804
-16.632122039795,21.838884353638
-21.556167602539,5.6136331558228
-9.906587600708,16.581708908081
-55.324157714844,-10.504770278931
-10.677368164062,23.344455718994
-16.28363609314,10.673560142517
-18.576625823975,9.6723117828369
-16.133182525635,10.787933349609
0.41289886832237,27.811624526978
-35.501888275146,-2.3893246650696
-7.1743559837341,21.614297866821
-47.983856201172,3.1611082553864
6.4326748847961,34.262725830078
26.188196182251,58.468032836914
-48.706470489502,-3.512179851532
-23.817924499512,22.494918823242
-47.242923736572,16.636001586914
2.7915065288544,30.523820877075
-2.9625437259674,44.382946014404
0.33224961161613,28.040538787842
-20.140235900879,7.2523798942566
-20.812570571899,11.144510269165
-41.87520980835,15.237906455994
-9.2181644439697,17.430095672607
-10.443051338196,16.477151870728
0.3197135925293,29.893043518066
13.852937698364,41.777801513672
-7.6396455764771,18.179189682007
-31.75101852417,2.4506103992462
-17.251754760742,37.704559326172
-8.2155561447144,37.132675170898
-47.655944824219,-8.9668207168579
-61.467060089111,2.1306276321411
-45.62833404541,-13.347455024719
-25.12156867981,3.4897632598877
-12.584769248962,15.712401390076
-9.0337820053101,18.616537094116
-16.714294433594,9.7800912857056
-19.426874160767,10.774302482605
-24.047079086304,4.7885122299194
-4.7468638420105,32.963607788086
12.010013580322,33.342880249023
-11.956579208374,15.856523513794
-17.868965148926,8.760232925415
-18.535404205322,21.889089584351
-39.462532043457,-0.84161847829819
-14.479056358337,14.471816062927
-16.658271789551,8.0378370285034
-18.989757537842,9.081130027771
-12.913880348206,27.479419708252
-24.587566375732,2.0391793251038
-35.156063079834,-7.9603719711304
-35.265895843506,15.353407859802
-12.692963600159,15.599780082703
-25.303249359131,11.897192955017
-11.148218154907,15.362475395203
-3.8783292770386,40.367980957031
8.1274032592773,45.272869110107
-17.860328674316,6.2701659202576
-5.9331316947937,20.980504989624
-23.219640731812,14.746891975403
-12.81246471405,12.827673912048
-7.6926307678223,20.861175537109
0.85388666391373,37.387016296387
-11.65024471283,16.3782787323
-12.101856231689,17.170705795288
-26.555028915405,-7.5989995002747
-32.211521148682,-3.9246628284454
-20.914640426636,9.4794387817383
-14.709949493408,13.10115146637
-18.689903259277,6.6867704391479
-9.7486038208008,18.978067398071
-7.5477285385132,21.278398513794
4.7728705406189,48.370903015137
0.2966622710228,39.179061889648
-25.861312866211,4.9272546768188
-22.648258209229,10.810531616211
-5.1800556182861,21.663303375244
-18.314846038818,9.3354597091675
-24.883102416992,2.3021919727325
-1.2262828350067,27.64056968689
-27.801568984985,2.1648743152618
12.187335014343,58.398242950439
-16.576929092407,12.777080535889
-18.809976577759,25.696977615356
-14.330718040466,12.756622314453
-40.390922546387,-11.926502227783
-4.8805122375488,39.918273925781
-7.6580100059509,16.921743392944
-13.340099334717,15.198808670044
-7.4990968704224,22.570825576782
-23.536945343018,26.149757385254
-17.243227005005,9.8689641952515
-9.5115699768066,32.151615142822
-18.131126403809,9.126277923584
-5.1401481628418,18.966968536377
-13.877258300781,10.906363487244
-10.96347618103,16.448778152466
-12.5913438797,16.914281845093
-11.978133201599,32.880470275879
-12.161390304565,14.347230911255
-6.4842081069946,39.540798187256
-47.980236053467,-8.6384220123291
-20.81404876709,15.310041427612
19.321001052856,65.758941650391
-4.2948789596558,24.191738128662
-19.162300109863,8.9514570236206
-7.9101486206055,47.116580963135
-19.96587562561,22.60668182373
-7.1283330917358,21.214252471924
-17.382656097412,10.227519989014
-4.5478372573853,24.785369873047
-14.859981536865,15.230335235596
-40.210597991943,10.962220191956
-18.376272201538,19.814180374146
-22.705770492554,5.9259538650513
-6.3733153343201,21.084142684937
-16.440902709961,9.7825164794922
-13.187825202942,14.866003990173
-17.626735687256,11.671031951904
-22.548910140991,5.9090070724487
5.2235126495361,32.437217712402
-4.3540501594543,18.874490737915
-10.19265460968,35.693031311035
-29.247995376587,8.1164522171021
-16.626564025879,13.845483779907
-23.272327423096,11.11291885376
-28.885848999023,-1.7262765169144
2.0668649673462,30.819187164307
5.40309715271,36.530372619629
-40.650741577148,-6.9552416801453
-9.8627042770386,17.639017105103
-1.5723139047623,42.802639007568
4.3497052192688,30.844825744629
23.901731491089,59.787578582764
-7.1950578689575,21.238094329834
-8.0334692001343,22.876434326172
-28.405132293701,-0.045641023665667
-3.8019306659698,24.024261474609
13.241032600403,85.961944580078
-19.640155792236,8.2429933547974
-45.965805053711,-7.2759757041931
-23.126733779907,5.2127065658569
-18.15161895752,11.971877098083
-21.273635864258,7.2125134468079
-13.403028488159,15.253960609436
-3.3059837818146,24.49854850769
-14.283836364746,13.525790214539
-24.667318344116,-0.095413252711296
6.2652368545532,37.565898895264
-22.133052825928,5.7941904067993
-13.289175987244,15.291242599487
-12.127091407776,15.760985374451
-14.2633228302,13.429321289062
-18.909900665283,9.0366411209106
-8.8660745620728,18.743064880371
-35.947864532471,14.391401290894
-14.111452102661,10.1715965271
-36.632858276367,-6.5695152282715
5.9837427139282,34.50993347168
-28.892890930176,-0.83128851652145
-15.63974571228,12.052620887756
-0.48180329799652,19.285305023193
-12.693398475647,15.002415657043
-4.4845309257507,22.111408233643
-14.240133285522,13.073703765869
-9.4152812957764,18.544105529785
7.3458013534546,33.167861938477
-6.0373787879944,22.756546020508
-11.798366546631,15.85263633728
-27.41513633728,1.6836385726929
3.7196226119995,33.883495330811
-22.93536567688,2.9479930400848
-23.475894927979,14.894128799438
-13.627177238464,15.009075164795
-24.877494812012,2.3368704319
-17.7093334198,22.534736633301
-12.188116073608,17.794271469116
-19.562452316284,9.3657684326172
-27.158475875854,2.6149663925171
-17.963438034058,11.977235794067
-65.141723632812,-35.248043060303
-27.861482620239,3.8474969863892
-5.7630724906921,22.290594100952
-0.60083496570587,41.965461730957
-26.610528945923,1.4128093719482
-15.374533653259,12.898949623108
-25.548374176025,14.148048400879
-24.040533065796,4.5296750068665
-27.603115081787,29.720573425293
-8.5349931716919,17.667358398438
-16.021709442139,12.420310020447
7.349672794342,41.915699005127
-9.7526531219482,18.160467147827
6.9040908813477,35.24490737915
1.5915156602859,29.045331954956
-15.568500518799,10.749444007874
-14.858390808105,11.225131034851
-17.712196350098,9.9756650924683
-12.921103477478,15.380084037781
-23.825958251953,23.515102386475
-37.234477996826,10.165133476257
-12.366011619568,17.393335342407
-27.362852096558,2.1029045581818
-8.430775642395,18.962982177734
1.3277870416641,29.785797119141
-23.786911010742,2.1591193675995
-33.84188079834,3.9147152900696
-38.880825042725,-9.9184322357178
-15.361289024353,26.529382705688
-8.3800191879272,18.978248596191
-40.91877746582,-14.606479644775
-46.939865112305,10.981471061707
-38.152648925781,0.92624694108963
-43.306419372559,-10.092809677124
-17.401260375977,9.6296348571777
-16.49787902832,12.309271812439
-20.327352523804,6.7597689628601
5.2457542419434,35.234115600586
-24.216585159302,17.129127502441
-5.2372875213623,20.140140533447
-18.43424987793,9.9190483093262
-16.589540481567,12.597301483154
-18.206859588623,10.668265342712
13.703905105591,41.288166046143
-6.6914968490601,20.403846740723
-13.224013328552,13.904593467712
-15.427025794983,9.7419195175171
-22.607677459717,6.1445226669312
-25.053136825562,12.530388832092
-24.524385452271,4.6871042251587
-27.018476486206,1.6910212039948
-16.497625350952,11.445867538452
-25.021806716919,19.524684906006
-40.740810394287,-13.831995010376
10.511068344116,36.794746398926
-4.9869556427002,22.103597640991
-15.37783241272,35.592441558838
-20.339567184448,38.19885635376
-11.247948646545,17.712352752686
-22.069162368774,3.667692899704
-23.304332733154,17.292083740234
-6.9591579437256,19.498128890991
-25.561614990234,2.5577840805054
-31.543054580688,-4.435706615448
-15.087924957275,13.018330574036
-11.223888397217,28.100637435913
-6.0148706436157,20.898931503296
-8.1777038574219,19.612140655518
-11.504454612732,16.221946716309
-18.304933547974,10.453450202942
-6.5589785575867,21.368350982666
-6.4590244293213,19.094532012939
-5.995849609375,23.353813171387
-12.447291374207,16.670745849609
-8.7151031494141,19.530912399292
-13.126721382141,16.429622650146
-6.1362318992615,20.261766433716
-23.658420562744,4.8108868598938
-14.787019729614,11.211893081665
-8.9184007644653,29.763717651367
-16.320997238159,11.156193733215
-11.922157287598,16.333417892456
-11.454237937927,17.129432678223
-6.8346238136292,20.459062576294
-30.568307876587,-2.6232311725616
-28.809324264526,-2.2485599517822
4.7887964248657,31.714668273926
-70.170288085938,-26.474502563477
-48.212188720703,-11.119785308838
14.509279251099,40.299480438232
-10.167091369629,15.808794975281
-11.553463935852,14.292096138
-7.6031036376953,21.869976043701
-15.966309547424,11.321057319641
2.3996708393097,32.987609863281
-26.13233757019,1.740984082222
-5.2302303314209,20.273052215576
-33.820320129395,-5.8210620880127
-22.309844970703,4.0665965080261
-48.238597869873,-11.255166053772
-6.8751344680786,16.049816131592
-19.377332687378,8.8578939437866
-7.3837194442749,19.382453918457
-14.410245895386,12.805061340332
-53.183097839355,-11.779418945312
-10.521384239197,17.945861816406
12.499882698059,51.71427154541
-26.274209976196,1.8089143037796
-31.942003250122,11.998121261597
-15.099297523499,20.738180160522
-5.7726163864136,22.482599258423
-20.216102600098,6.3130488395691
25.265365600586,72.733276367188
17.040840148926,72.312202453613
-28.157707214355,24.009136199951
-49.015937805176,-10.328439712524
-4.058002948761,52.04789352417
-52.216598510742,-17.284286499023
-20.449350357056,6.1962022781372
-20.091424942017,7.6860074996948
5.9942154884338,33.558670043945
2.2654867172241,36.014320373535
-26.534963607788,0.22574804723263
-33.146366119385,-7.2256817817688
-21.171808242798,0.5568106174469
-24.693477630615,9.8990030288696
-25.21604347229,-0.4124761223793
-21.798383712769,12.17121887207
4.2818646430969,40.979393005371
-11.971903800964,16.736621856689
-11.366726875305,15.214661598206
-21.538330078125,6.2140283584595
-20.591045379639,7.2908716201782
-56.241024017334,-0.86862999200821
-9.6714973449707,34.312469482422
-18.219415664673,10.245718002319
3.8444583415985,32.86731338501
-23.892395019531,7.4224419593811
-8.9450654983521,19.644273757935
14.403771400452,43.220542907715
-11.303162574768,15.251800537109
-19.813772201538,10.705991744995
-20.520320892334,6.7482514381409
-0.90105557441711,27.633995056152
-9.9803628921509,18.407400131226
-8.5359106063843,12.977053642273
-22.907077789307,10.447201728821
-28.438396453857,0.68509161472321
-49.297431945801,-10.546444892883
-20.498340606689,5.9410634040833
-6.9759550094604,21.798004150391
-31.456239700317,-5.7986135482788
31.092615127563,64.249900817871
-3.9573373794556,26.999357223511
-31.47611618042,-3.6245429515839
-30.65505027771,4.3262991905212
-13.754323959351,28.923049926758
-16.161785125732,27.074823379517
-21.068470001221,8.3631563186646
-12.492953300476,13.748555183411
12.694421768188,50.662868499756
-1.5964595079422,36.664199829102
-18.509098052979,10.14314365387
-9.9386720657349,18.561292648315
-40.393905639648,10.629117012024
-39.466213226318,-12.91788482666
-23.285291671753,26.79380607605
26.893968582153,64.874282836914
-14.426679611206,18.645978927612
-29.938806533813,22.420562744141
-7.9563665390015,18.061277389526
10.581670761108,44.326259613037
14.812185287476,41.259925842285
-72.236145019531,-39.5251121521
-6.3283557891846,34.430274963379
-14.078285217285,8.5183382034302
0.58442091941833,26.891515731812
-24.312038421631,32.945922851562
-12.307929039001,31.620334625244
-5.3775339126587,22.828874588013
-33.280025482178,18.165428161621
-9.4002027511597,45.904052734375
-30.489248275757,5.3890261650085
-33.567024230957,13.361918449402
-7.1676015853882,20.85604095459
-4.0932579040527,21.265653610229
7.3462882041931,33.431880950928
-9.649847984314,29.370164871216
-16.276014328003,28.358160018921
12.903467178345,65.447647094727
-1.7501689195633,27.059843063354
-2.3829793930054,34.170509338379
-14.174121856689,11.538389205933
2.8978018760681,32.32991027832
-28.409202575684,6.5112195014954
-11.745272636414,16.25524520874
-12.038784980774,16.829969406128
-37.152847290039,14.211701393127
-12.520305633545,28.542036056519
-62.179000854492,-26.168252944946
-14.165928840637,11.822738647461
2.6270275115967,30.538385391235
3.3953492641449,29.388513565063
-11.958240509033,16.537496566772
-2.4712452888489,22.14769744873
-12.664196014404,19.872594833374
-52.174121856689,5.0777196884155
-13.481516838074,12.771936416626
-10.003197669983,17.373121261597
-40.616550445557,-5.0609154701233
