45,71
-43,-12
13,44
-51,-26
-52,-20
-57,-30
-51,-23
18,47
13,40
-77,-43
15,46
-78,-51
26,56
48,76
-22,5
-68,-38
15,44
32,68
38,63
77,105
-69,-41
54,77
46,74
2,33
18,43
47,73
31,58
8,36
83,111
20,49
30,58
-11,15
-79,-51
-55,-30
-76,-47
-39,-14
-85,-57
-93,-68
-24,8
63,91
4,31
-13,17
105,131
14,44
-44,-17
-32,0
67,94
54,85
-46,-17
17,43
2,28
-43,-11
-13,13
23,53
38,69
10,41
6,35
26,49
-71,-45
62,91
-31,-5
49,74
-54,-20
-92,-62
-83,-58
-34,-1
44,71
33,63
11,42
1,28
-85,-61
-45,-16
27,57
9,36
-61,-33
-9,18
19,50
-68,-43
-48,-21
95,125
-4,19
22,49
-1,26
65,93
-30,4
-8,21
-57,-30
2,31
-33,-7
-56,-31
-44,-15
-13,15
-41,-14
-79,-49
40,68
74,101
51,83
42,71
-64,-35
5,31
-31,-1
24,48
41,68
7,35
-49,-22
44,72
-18,15
-63,-34
-36,-8
-94,-67
11,47
-69,-44
33,63
-69,-40
-43,-17
19,45
-38,-11
-62,-29
-65,-36
46,74
-1,25
-8,16
-53,-25
32,57
-27,0
-80,-50
-35,-8
42,69
