-476,32
-370,156
126,155
-143,-118
-211,319
-494,302
-464,328
-115,363
-682,314
-288,180
-92,305
-342,412
-270,165
145,168
-298,454
-112,-86
73,100
-107,-82
80,403
-70,332
-249,54
-503,94
152,179
-700,262
-251,95
31,55
216,240
-166,-141
-203,-178
-127,-101
-602,150
-167,-143
-94,-68
-992,768
-295,-271
-195,-170
-132,-107
-347,581
81,109
218,245
27,47
21,45
-41,344
-596,431
53,76
-423,64
-131,-108
205,227
50,73
-175,354
-90,-68
143,168
-141,-119
-132,300
-134,-112
-203,-179
-607,481
96,121
-165,-144
-108,-81
-164,-138
-818,820
117,145
-192,-164
-160,-129
87,114
-160,-135
-194,514
-278,644
-271,380
-240,770
160,181
-271,97
-345,486
159,187
163,187
-139,-120
-299,367
-393,605
133,158
-181,-159
-117,-89
-370,129
-156,-131
150,173
-394,696
-483,181
-408,174
-568,539
-614,392
-742,457
-158,-129
-34,-13
-215,457
-117,-90
-339,295
-492,307
-293,371
-244,130
-124,-103
94,117
-294,339
-229,-209
-41,-21
-97,-71
50,73
-25,-2
78,101
-270,191
133,159
-112,-91
286,309
131,159
-77,-48
-247,-221
149,176
138,160
72,664
-113,-86
-14,10
-262,191
-218,-193
-184,-162
-97,-71
-3,22
146,169
-209,-187
-36,-10
-241,136
-45,-21
110,132
-133,381
-307,175
-157,-136
-21,543
161,186
-226,170
145,171
-290,452
-176,-155
-8,21
-5489,4705
120,144
-3,23
-68,-40
89,111
-108,-81
48,72
-126,-101
141,165
105,130
218,244
133,156
239,264
-13,6
-233,525
-310,205
31,60
-183,448
-2132,1974
-77,357
-142,-115
152,176
135,163
-402,229
161,183
-162,-138
-1499,2160
130,154
-3071,230
-413,170
-118,-94
-220,-193
167,189
-143,-119
128,154
53,86
-517,478
91,123
-212,450
-34,-11
-3712,7339
-53704,-8195
-19,9
48,74
28,55
-3820,16659
6,37
-85,-52
-1976,585
35,61
96,124
-530,197
29,61
-8676,7853
96,131
-439,224
56,98
-5365,1476
132,158
104,136
1,27
42,70
11,34
20,51
10,47
3488,34176
-139,-113
17,47
-14220,-1525
1493,12770
-2293,2703
-40,-13
-1073,5509
39,67
53,79
-38735,-2416
-99,-68
-6,30
-133,-105
-125,-100
45,73
-182,-144
-86,-56
-106594,65026
88,119
-171,-130
39,76
-11,23
-185,-150
87,115
-128,-94
150,184
-20557,2517
-40,-16
16,47
29,58
35,64
-30,-8
-79,-37
43,74
35,66
149,179
-15,14
20,41
39,74
-92,-59
-6,21
-75,-46
43,77
40,79
12,42
44,82
81,125
-892,865
20,60
-101,-62
-32,-7
67,97
-72,-41
-25,7
14,49
-47914,-3809
78,106
43,75
58,87
94,125
4942,52260
-14,20
-75,-32
34,69
40,68
146,180
-961,1349
-51,447
-906,930
94,124
-36,5
-11513,9062
48,77
5,33
38,73
-59,-29
-256,14516
53,83
-79,-50
-84,-58
-16,26
37,68
-66,345
36,66
-74,-37
28,56
-145,-115
117,152
91,120
46,78
71,101
93,119
27,55
-90,-64
87,120
-14,15
-34,-8
27,52
112,157
-10696,432503
-10054,2064
-195,-164
-1366,584
-45,-8
-158,-129
44,72
-580,1112
-156,-124
-53,-24
150,181
-33,1
61,94
-31,-1
-154,-124
-37554,23510
-14,17
14,45
-66,-34
2,36
-77,-42
-21,11
5438,63103
71,104
7,43
14,43
-63,-34
14,42
-205,-172
-78,-50
63,103
4,37
18,49
-121,-82
-120,-95
161,186
38,70
57,89
-1940,2217
-6,28
-44,-12
-55,-26
-235,-200
-39,-9
119,159
-133,-98
-6076,4029
63,92
58,89
-544919,323689
37,69
-376,221
-5112,3574
-95,-66
-5865,61968
76,108
-77,-49
-5492,46898
-87,-65
-60,-34
-2491,9987
-25113,18700
49,77
9,38
-51259,-535
-109,-73
-4004,6657
-183,-149
59,92
7,43
163,196
-32,2
-117,-84
-1158,845
-6023,4683
143,177
51,82
-74,-45
-10,19
67,97
8,41
68,93
34,68
68,91
-510421,-6324
-82,-52
-3402,5476
-78,-49
-124,-95
-2148,2669
3498,31802
23,64
27,64
-81,-51
-122,-86
127,155
-544,721
-107,-79
-7910,10590
-68,-32
37,67
-183,-152
-6146,2780
7,40
101,124
-16769,11561
-7511,2002
-45,-14
-171,-136
-169,-139
122,154
-67,-40
45,74
-41517,25844
-179105,38330
150,178
-45,-14
-98,-64
-8768,-902
-2,28
-29,6
-79,-46
-49,-23
-60,-28
-33109,41235
-102,-54
-149,-121
-63,-38
-86,-52
32,62
-999,1543
-225,507
-123,-85
-800,360
18,39
30,62
91,124
100,125
12,40
-73,-46
-138,-105
-104,-74
-55,-28
-1677,4316
-1383,1790
44,78
1270,36617
-31451,-4008
-53,-20
42,70
87,123
-95,-61
-38072,21884
81,110
-4,24
-115,-85
55,80
15,47
122,155
47,78
-91,-63
-1084,3215
-338,339
-4045,5556
66,98
-146,-111
-125,-93
-3708,2352
51,77
27,61
-114,-80
-112,-80
-55,-21
4,31
59,87
-0,21
71,106
-20,18
-125,-82
46,77
-65,-36
-75,-42
-61,-22
66,93
62,89
-1015,734
-114,-62
-9,22
-154,-123
-186,-148
90,122
-46,-21
-77,-52
87,118
-108,-77
47,84
-3986,2640
128,163
-20,9
14,42
-60744,4674
-479,842
-116,-74
-129,-89
60,92
-2053,92649
