-5,15
-86,-58
-33,-8
-29,-7
-48,-24
18,44
-106,-79
-49,-21
-10,15
-18,4
16,38
-32,-11
45,72
51,80
30,59
44,71
1,23
-57,-27
59,86
51,75
-41,-9
20,44
-74,-44
-1,22
-24,0
17,40
-34,-14
69,95
-4,19
46,74
9,31
23,44
-14,9
-95,-64
-0,19
15,38
38,66
-16,10
3,29
27,50
9,36
-17,6
43,71
7,34
-4,19
11,38
26,55
21,42
-38,-20
-57,-31
16,38
-10,15
-30,-6
-13,13
34,59
46,79
-94,-63
28,59
-50,-31
-97,-73
33,54
-14,11
42,66
-12,14
