11.226425170898,350.36175537109
-611.29278564453,452.77685546875
-469.63067626953,407.45962524414
-248.82727050781,-18.905244827271
-115.53276062012,99.357040405273
-216.8830871582,12.165279388428
210.34794616699,454.43801879883
-95.145530700684,55.522518157959
-93.283164978027,35.522895812988
-268.50082397461,431.96713256836
-21.338300704956,121.77990722656
-33.596103668213,95.657905578613
-58.375450134277,62.425861358643
-872.69439697266,838.23693847656
-85.840705871582,35.124423980713
33.968639373779,161.85076904297
-336.49627685547,294.69805908203
-199.49798583984,104.94003295898
145.3757019043,305.81414794922
-158.8726348877,10.123048782349
-173.03369140625,-29.350421905518
-643.80413818359,448.53924560547
-129.18026733398,-1.622089266777
-88.497192382812,40.234634399414
-86.916160583496,50.694450378418
-167.90896606445,-41.761081695557
0.046418383717537,153.42140197754
-48.394989013672,82.323379516602
-182.94857788086,231.36364746094
-273.89166259766,130.55624389648
-140.32757568359,26.893930435181
-186.67660522461,-40.887126922607
-449.35266113281,299.38479614258
-69.823936462402,69.607490539551
-90.923370361328,31.027843475342
-122.75161743164,11.109568595886
-41.435726165771,93.975456237793
43.717750549316,190.40170288086
-154.35678100586,-14.159468650818
-695.47155761719,569.26214599609
-102.26207733154,35.897895812988
-60.936428070068,145.04504394531
21.497249603271,312.4377746582
-1131.5384521484,-104.14190673828
-204.42330932617,63.243408203125
-151.43725585938,-10.343166351318
2.2969546318054,172.43814086914
94.365097045898,234.37805175781
-170.62425231934,111.77925872803
-180.51336669922,-40.451866149902
4.3013820648193,144.51983642578
12.236175537109,151.10108947754
-212.22946166992,-86.797134399414
-261.01605224609,257.74182128906
-106.02233886719,51.784992218018
-184.99955749512,-35.893714904785
-37.003879547119,107.41850280762
-249.96113586426,-126.68857574463
-1402.484375,560.30578613281
-683.72869873047,1145.7111816406
-46.794330596924,91.601509094238
-109.12775421143,20.675151824951
-82.38232421875,59.222110748291
-255.75259399414,-34.529140472412
-112.2740020752,27.494426727295
-365.02188110352,39.311351776123
-251.11651611328,-48.267765045166
-29.195560455322,97.465919494629
-32.794921875,93.322547912598
-306.83081054688,77.681297302246
-98.405471801758,219.0050201416
-514.39733886719,-111.53073883057
-244.12495422363,317.03594970703
-33.263778686523,98.630783081055
-47.608947753906,81.093002319336
-35.467552185059,83.543678283691
-32.053115844727,98.970092773438
-127.71215820312,8.5765943527222
-11.499436378479,113.08089447021
-178.35565185547,-15.850087165833
6.9639954566956,142.20306396484
-380.25970458984,511.30303955078
-707.11560058594,182.73295593262
-84.25862121582,368.6028137207
-184.16633605957,151.62287902832
49.406455993652,193.92832946777
-29.564563751221,106.85818481445
-17.402599334717,108.11061859131
-99.385711669922,28.536209106445
-144.95478820801,-2.6398332118988
-143.36459350586,-15.226333618164
-359.57592773438,-19.324758529663
-56.548229217529,78.287147521973
-7.0278558731079,181.19747924805
-213.40545654297,-88.11302947998
-161.43206787109,193.18814086914
34.82445526123,178.10746765137
-226.5412902832,48.884834289551
-56.110725402832,167.06340026855
-1015.4185180664,724.32086181641
-21.453317642212,106.88655853271
-116.93758392334,-19.114654541016
-76.565544128418,55.563465118408
-89.189697265625,124.8634185791
58.747421264648,207.94328308105
-64.864479064941,81.873474121094
-56.971801757812,62.954208374023
-413.28518676758,88.724540710449
-150.05418395996,-10.502217292786
-8.5464849472046,132.38212585449
-372.23941040039,183.32855224609
-203.00503540039,-73.66187286377
-1229.9375,656.060546875
1.00110912323,119.16828918457
53.153896331787,185.92272949219
-324.07577514648,-37.909934997559
-195.59114074707,241.96208190918
-245.86193847656,-11.296763420105
-139.66394042969,46.03885269165
-150.28504943848,470.98974609375
-112.35730743408,22.625789642334
-90.203163146973,51.670135498047
-49.221355438232,83.159027099609
-182.54760742188,-23.762456893921
-87.093002319336,32.586898803711
-255.59588623047,163.89916992188
-348.4567565918,416.17053222656
-109.80333709717,239.61180114746
-46.77808380127,99.764297485352
-85.350791931152,60.821346282959
-314.83865356445,469.88781738281
-76.352722167969,52.791961669922
93.475868225098,216.29656982422
-79.200790405273,44.527843475342
-100.88866424561,38.591609954834
-180.65704345703,-38.681713104248
40.218715667725,170.02505493164
-16581.427734375,16889.771484375
-6.2739610671997,382.37750244141
-150.83447265625,-27.00279045105
-225.40534973145,32.900482177734
-433.96832275391,-96.193252563477
-66.694869995117,63.986804962158
-110.26586914062,29.199983596802
-69.434150695801,70.744659423828
-204.24263000488,107.08867645264
-121.40266418457,-2.859925031662
6.9255766868591,157.43760681152
-85.470726013184,42.433074951172
-26.875061035156,107.15244293213
-123.15420532227,-6.5436491966248
-235.89262390137,309.53634643555
-103.00115966797,31.963092803955
22.168823242188,147.51770019531
-89.254051208496,154.64402770996
-26.568695068359,173.63554382324
-216.99517822266,-36.373012542725
-130.29486083984,-0.65115749835968
-0.12214856594801,213.63682556152
-412.02667236328,152.68795776367
-117.23404693604,2.1338424682617
-149.34762573242,16.982215881348
-38.177810668945,89.141654968262
-34.441940307617,107.42469787598
-306.3669128418,430.93148803711
30.412656784058,141.20660400391
2.3510990142822,393.20056152344
-170.54067993164,289.75439453125
-1706.9764404297,2018.5465087891
-374.63128662109,-78.222152709961
-416.62072753906,61.759521484375
-242.7647857666,67.194564819336
-116.98515319824,29.555509567261
78.90502166748,351.10858154297
-95.306083679199,48.642730712891
-287.41873168945,283.19174194336
-159.39129638672,-36.270320892334
57.565250396729,201.83764648438
37.153739929199,180.25303649902
-186.93780517578,-41.219440460205
-157.85668945312,-30.56010055542
-136.83470153809,-0.74651712179184
-71.889778137207,191.87689208984
-176.94415283203,269.01702880859
24.805332183838,161.53131103516
-5.5711369514465,123.17195129395
-156.8835144043,22.471097946167
-86.777473449707,52.940895080566
-47.676261901855,94.663444519043
-206.53903198242,29.686431884766
46.066528320312,166.23258972168
-209.20220947266,-78.762481689453
-281.41220092773,431.63772583008
-506.58657836914,340.56985473633
-207.87190246582,1.0585398674011
73.671806335449,201.81440734863
-92.57568359375,43.495952606201
-785.47827148438,591.59625244141
-136.13955688477,382.62054443359
-37.857997894287,84.179840087891
-126.00270080566,20.921911239624
-33.433025360107,179.3310546875
-221.29721069336,142.99024963379
-120.05628967285,51.676689147949
-33.954154968262,95.814407348633
-109.09422302246,212.99192810059
-155.30778503418,141.04759216309
-198.37994384766,55.39867401123
-108.94777679443,14.371111869812
-164.93165588379,-36.101989746094
-195.84902954102,-57.046165466309
-71.958953857422,56.315654754639
-103.45820617676,30.033464431763
-157.33448791504,-15.648520469666
-342.24841308594,140.11866760254
-33.639221191406,124.66390991211
-77.692085266113,51.792297363281
-121.04122161865,13.895921707153
-141.84687805176,-20.100324630737
-112.21090698242,136.72901916504
-18.830722808838,119.8212890625
-41.845638275146,369.74981689453
-135.47514343262,41.540149688721
-83.071563720703,42.513618469238
-504.61669921875,-78.092132568359
-86.522727966309,36.259426116943
-167.95584106445,-29.131202697754
-182.09909057617,194.34790039062
-127.81709289551,269.45077514648
-103.1852645874,59.577808380127
-172.0930480957,-38.417068481445
-189.0924987793,308.28668212891
-32.842010498047,295.60076904297
-21.71960067749,121.26387023926
-266.85913085938,216.83636474609
-384.89874267578,608.93670654297
-229.1213684082,-97.565505981445
-60.094310760498,75.878677368164
-183.51147460938,-35.553974151611
-123.40643310547,8.3847179412842
-337.02328491211,371.10787963867
-373.8828125,233.63633728027
-140.22540283203,-15.230640411377
37.667747497559,259.35260009766
-110.91764831543,33.993236541748
-167.18417358398,-19.97194480896
-89.819847106934,92.794990539551
-150.82461547852,-10.601979255676
-486.60876464844,275.30911254883
28.098289489746,267.08099365234
66.799835205078,190.97845458984
-88.848182678223,51.827461242676
-110.72619628906,6.0513825416565
-975.53765869141,244.49105834961
-323.17697143555,454.66223144531
-78.014472961426,93.994606018066
53.438045501709,183.74008178711
-10.661541938782,114.34489440918
-320.60971069336,29.920341491699
-19.126499176025,373.53311157227
-56.139343261719,138.73150634766
-49.933883666992,76.357269287109
-79.978126525879,183.55639648438
-284.86990356445,679.05615234375
-8.2026252746582,130.86686706543
-116.30980682373,408.06030273438
-132.29867553711,12.63166809082
-109.08076477051,43.823108673096
-8.6755676269531,127.56084442139
-277.61111450195,-55.673774719238
-97.601066589355,35.087287902832
-1309.4577636719,1223.0533447266
-14.660235404968,132.17953491211
-35.920146942139,90.864936828613
180.67376708984,463.1350402832
-144.5280456543,-12.402103424072
-258.51919555664,172.12637329102
-54.451217651367,92.70622253418
-982.34521484375,-292.90728759766
-62.052074432373,71.303863525391
-58.68709564209,574.62658691406
-141.14569091797,75.385765075684
-52.798358917236,89.584983825684
-24.662900924683,326.27627563477
-69.79517364502,73.28734588623
19.505212783813,171.79437255859
71.636703491211,282.13458251953
-30.082860946655,111.20737457275
-112.05804443359,21.09308052063
-27.745290756226,107.21662902832
-620.50939941406,169.7123260498
2.2925567626953,140.13832092285
-14.805239677429,135.06530761719
110.79594421387,219.54313659668
-82.556465148926,49.502464294434
-215.81988525391,106.91904449463
-123.94683074951,224.50360107422
-9.3775272369385,123.57508087158
-269.40466308594,14.135996818542
-151.05447387695,213.46395874023
-69.639739990234,73.296073913574
20.618669509888,161.89770507812
-1.085107922554,130.71116638184
-104.11050415039,21.940923690796
-283.69760131836,66.808349609375
-42.701435089111,158.65667724609
-71.052993774414,222.14749145508
-174.19519042969,-35.015460968018
-380.44815063477,244.34608459473
-219.2162322998,-91.516540527344
-83.585075378418,51.08670425415
-40.652683258057,93.283248901367
-8.3540191650391,121.12411499023
4.9705166816711,146.84133911133
-82.427917480469,46.696216583252
-317.18682861328,54.490039825439
-350.63146972656,635.98321533203
-47.95539855957,146.13972473145
-369.37805175781,779.18029785156
22.599517822266,185.47688293457
-73.474533081055,50.199268341064
-39.71081161499,105.78076934814
-96.991790771484,31.108497619629
17.753423690796,145.0118560791
-474.02725219727,218.10067749023
-107.3480682373,27.510515213013
14.801687240601,171.84004211426
-45.023731231689,89.772468566895
-120.77225494385,19.669076919556
-294.67855834961,-42.646644592285
-116.05545043945,78.094711303711
-82.757064819336,302.0944519043
-157.46936035156,95.487892150879
-99.465469360352,40.786106109619
15.193196296692,122.90791320801
8.1166048049927,150.14625549316
-40.575950622559,71.29923248291
-133.96624755859,-35.188556671143
18.431434631348,318.07495117188
1.9052356481552,147.82731628418
18.139163970947,157.35568237305
-132.09013366699,76.781372070312
-57.003223419189,839.7021484375
-353.52917480469,303.41693115234
-94.069351196289,66.052642822266
-330.98556518555,324.91934204102
-237.99461364746,-110.84745025635
-215.89465332031,-6.0718674659729
16.382961273193,157.84696960449
-70.085884094238,60.958881378174
-1175.3345947266,-97.212448120117
-88.769271850586,82.35417175293
-88.444961547852,51.195316314697
-132.03732299805,-5.6579885482788
-64.940216064453,58.543064117432
151.1739654541,278.35873413086
-139.57312011719,-21.765420913696
33.564193725586,243.60745239258
-105.61682128906,42.968162536621
-93.506912231445,43.171737670898
-79.78360748291,43.59485244751
-48.885353088379,73.886039733887
-143.20179748535,103.96067810059
-32.132255554199,100.64498138428
-64.022674560547,75.072784423828
-167.35290527344,-0.77768158912659
-56.656093597412,84.603256225586
-80.488540649414,51.934532165527
-314.12942504883,-6.0111060142517
-148.70132446289,64.270523071289
4.6592111587524,214.48550415039
-60.469646453857,90.482925415039
-145.89897155762,-16.164009094238
-116.15124511719,8.1039543151855
-2027.3474121094,1775.1890869141
-82.765396118164,230.44325256348
-458.05450439453,111.58881378174
-223.20600891113,537.37756347656
-107.36164855957,27.475162506104
13.24517250061,167.51457214355
-75.610298156738,60.36710357666
-175.02156066895,-29.276138305664
-23.019720077515,125.98313140869
-116.82211303711,5.5276002883911
-48.314533233643,104.61956787109
-537.30377197266,753.83416748047
-35.631011962891,109.4128036499
-390.45831298828,246.01840209961
-96.999320983887,104.23036193848
-599.1640625,1196.0396728516
-77.418533325195,66.453514099121
-295.85852050781,704.87817382812
-156.19976806641,-20.999570846558
-134.95951843262,12.36935710907
-3.3118526935577,119.91259765625
-38.524482727051,86.350692749023
-51.248474121094,165.14505004883
-128.2014465332,21.54891204834
-135.47023010254,20.774765014648
-181.10734558105,29.231204986572
-135.42179870605,13.058775901794
-158.63949584961,-16.711503982544
-245.90570068359,-36.102230072021
-82.01383972168,45.552043914795
-143.96278381348,132.3536529541
-349.54858398438,222.09585571289
-83.508522033691,53.498390197754
-104.24544525146,53.443653106689
21.030223846436,160.09523010254
-75.769462585449,50.927410125732
-174.29942321777,-37.028854370117
33.364654541016,198.06706237793
111.46432495117,241.20533752441
-185.06517028809,-29.199462890625
-96.744613647461,45.678192138672
-30.997301101685,86.925674438477
-209.12249755859,612.52227783203
-154.58026123047,-7.2769808769226
-524.01904296875,378.37435913086
-100.59658813477,30.131841659546
-109.37823486328,27.693250656128
-140.54864501953,-3.6640238761902
-98.865943908691,33.186084747314
-16.172035217285,108.19398498535
-58.271141052246,79.779411315918
-183.73094177246,-53.396514892578
-359.22592163086,865.95574951172
-104.96424102783,30.266017913818
-45.368885040283,122.50261688232
-69.902442932129,51.143180847168
25.450298309326,172.5290222168
76.50496673584,213.35549926758
-320.03994750977,666.85882568359
-127.66181182861,174.23068237305
-63.740001678467,72.893218994141
1.4446393251419,108.91188049316
-13.000905990601,116.50860595703
58.405910491943,200.57397460938
-114.31282806396,2.507396697998
-84.572494506836,60.201412200928
17.913789749146,144.08969116211
-327.95083618164,564.87829589844
-23.111410140991,191.4708404541
-62.66138458252,74.008804321289
-57.627208709717,68.98380279541
-35.185600280762,100.10484313965
4.7900943756104,151.02751159668
52.622791290283,175.72048950195
-154.25411987305,-25.893112182617
-26.269193649292,105.38227081299
-10.982866287231,279.97399902344
-80.329055786133,96.329467773438
-49.70357131958,79.348861694336
-109.33154296875,23.585788726807
-24.285095214844,151.77760314941
-395.83218383789,527.58990478516
-297.18072509766,298.56140136719
-107.59673309326,32.296886444092
-2146.5952148438,1572.8331298828
-2.3844413757324,125.99642181396
40.780353546143,172.31039428711
11.500974655151,126.69091033936
-30.904775619507,790.35437011719
-61.274921417236,37.700145721436
-68.899711608887,387.95812988281
-565.83813476562,427.59664916992
-82.278739929199,98.098945617676
-545.00537109375,224.52780151367
-82.515045166016,59.459449768066
-100.75845336914,45.877429962158
-105.45428466797,22.190292358398
-38.659069061279,97.918235778809
-96.649703979492,37.951202392578
38.396896362305,174.92086791992
-373.88784790039,284.76611328125
5.5109891891479,145.93173217773
-82.604438781738,46.79398727417
-236.59448242188,-110.53720855713
-509.17980957031,754.87774658203
-30.218086242676,92.35661315918
-55.268852233887,64.112823486328
-159.98120117188,270.36566162109
46.121673583984,170.98875427246
-254.50115966797,7.1874866485596
-84.763793945312,370.05935668945
-385.75839233398,-82.23828125
-163.16903686523,121.44296264648
-123.39598846436,9.8534660339355
-283.43057250977,279.0107421875
-144.27159118652,-10.275793075562
-589.9248046875,-133.92018127441
-1208.6787109375,1032.9479980469
-1300.2451171875,1086.2459716797
-60.413543701172,66.825965881348
-171.7483215332,-48.679710388184
108.27416229248,258.55093383789
-128.6961517334,4.2379493713379
-90.090065002441,49.622062683105
-97.999176025391,189.15333557129
-22.381944656372,100.20465087891
-94.659568786621,58.700302124023
-168.08868408203,72.489784240723
-87.194328308105,70.884323120117
-88.817321777344,134.51243591309
-136.94273376465,-13.718254089355
-7.1511135101318,127.9930267334
-34.772808074951,93.365455627441
-153.6778717041,-25.104991912842
-178.04179382324,-33.937980651855
-530.50964355469,588.61602783203
-126.32530212402,-0.88522136211395
-148.49224853516,147.55229187012
-108.65631103516,31.759449005127
-133.9427947998,-18.878797531128
-218.21292114258,-81.182945251465
-210.32057189941,44.60697555542
-72.23770904541,61.134929656982
-74.81494140625,281.18569946289
-285.2414855957,39.505592346191
206.14501953125,343.84625244141
-832.0830078125,765.57446289062
-130.74076843262,3.5245909690857
52.369815826416,178.32400512695
-154.96334838867,-37.420886993408
-110.89387512207,34.402534484863
-134.80426025391,9.2582883834839
32.298274993896,181.0944519043
-6.1259231567383,115.06499481201
-324.41473388672,759.90185546875
-5.5346808433533,126.38902282715
-981.86340332031,529.54669189453
-43.979393005371,88.821792602539
53.612442016602,194.67918395996
-54.455326080322,213.97825622559
-80.941200256348,47.634101867676
-156.77639770508,-19.100339889526
-208.47273254395,17.684129714966
-107.52201843262,221.23222351074
-115.36183929443,-16.792764663696
-244.5,73.427391052246
-105.58657073975,170.0525970459
-177.41212463379,-47.487407684326
-79.719520568848,45.278308868408
-189.22082519531,-68.705406188965
-42.308349609375,117.5580291748
-502.16549682617,439.70733642578
-355.46450805664,439.16610717773
-78.137161254883,62.096939086914
-183.93925476074,-54.978115081787
31.279409408569,140.09103393555
-417.85076904297,-17.864200592041
-161.06253051758,23.899751663208
-31.804412841797,102.64700317383
-155.44766235352,-11.032132148743
-178.07269287109,-45.930099487305
-350.06777954102,-1.7126014232635
75.163124084473,216.13053894043
-383.89181518555,51.795845031738
-88.750709533691,45.054382324219
-320.63131713867,468.98287963867
-32.570133209229,371.35980224609
-378.53012084961,-129.65785217285
-55.234085083008,79.45280456543
-160.97418212891,-37.056510925293
-123.27821350098,7.834529876709
-54.314952850342,81.978614807129
-420.12106323242,386.87872314453
-157.15812683105,19.166652679443
-132.91944885254,3.1862256526947
10.963982582092,156.94776916504
15.021107673645,141.93258666992
-34.998882293701,99.987899780273
-83.797286987305,53.021858215332
94.106315612793,273.60354614258
-104.16584014893,33.815746307373
-1153.0500488281,470.33309936523
-73.007522583008,67.698822021484
-169.33804321289,41.255252838135
-333.59719848633,180.67834472656
-220.83776855469,29.018924713135
-122.48606872559,128.81867980957
51.913398742676,186.94529724121
34.058902740479,190.51155090332
-71.745719909668,51.066520690918
-30.038906097412,106.56218719482
-281.31289672852,42.167175292969
-228.86698913574,26.450664520264
88.478630065918,614.66955566406
-488.31427001953,368.9404296875
-617.78985595703,407.41241455078
-119.48778533936,35.041206359863
-71.867515563965,74.815589904785
17.924871444702,145.02207946777
-99.903869628906,169.8175201416
-120.9820022583,351.73336791992
159.19842529297,441.10165405273
-41.261577606201,104.86534881592
-59.746726989746,73.359580993652
-10.397837638855,117.40260314941
-116.48811340332,5.996395111084
-331.99227905273,1007.0735473633
-93.954238891602,48.08219909668
-81.083419799805,53.841499328613
0.33961552381516,453.04049682617
-221.76591491699,-96.486862182617
-354.60797119141,586.01910400391
-28.151271820068,112.16514587402
42.352493286133,636.02722167969
-28.026079177856,93.454376220703
-24.763282775879,114.55215454102
-112.7320098877,19.070936203003
-138.85304260254,-8.3163375854492
-14.378409385681,121.8083114624
-2.9598095417023,133.3203125
-221.28622436523,-70.183570861816
-88.502792358398,343.54565429688
-142.93830871582,-5.4295840263367
-161.31620788574,-29.630207061768
30.300886154175,149.40063476562
-64.681922912598,68.734931945801
-165.10195922852,-18.684429168701
-171.771484375,-27.438158035278
-32.834369659424,102.13455200195
-561.94354248047,979.5546875
-7.5277905464172,201.31684875488
-98.014762878418,48.299095153809
-125.37307739258,113.35591125488
-52.384876251221,93.448585510254
-61.340408325195,60.013710021973
11.484904289246,125.53491973877
-72.868865966797,63.482467651367
-102.5797958374,26.83268737793
-310.28009033203,-15.056832313538
-43.544597625732,93.870635986328
-339.90637207031,637.96276855469
-120.65934753418,10.636775970459
-71.70783996582,60.87572479248
-30.294710159302,104.99742126465
-89.385284423828,46.166637420654
-24.735441207886,107.98849487305
-136.80978393555,611.30169677734
-69.597229003906,190.21871948242
-195.94319152832,10.218245506287
-235.75289916992,876.73834228516
-212.74629211426,141.76034545898
-60.242092132568,64.695846557617
-147.8896484375,-5.5513744354248
-296.40725708008,435.17178344727
-122.13794708252,23.955263137817
-349.31530761719,440.29107666016
-189.42631530762,-42.244525909424
-193.09466552734,-26.204195022583
-15.671098709106,115.23803710938
-0.19686526060104,138.21450805664
-109.81356811523,-9.7744989395142
23.497531890869,170.0358581543
-124.95050811768,20.866365432739
-114.40081787109,390.58654785156
-360.12963867188,557.03271484375
18.490510940552,165.6216583252
-13.392124176025,109.37200927734
-104.11608123779,27.755235671997
-381.50137329102,177.3483581543
-198.11608886719,-54.953056335449
-188.36729431152,-51.519798278809
-118.30381011963,75.686576843262
-97.568428039551,36.024425506592
-113.42501831055,26.039632797241
-99.869071960449,32.981468200684
-159.10850524902,-16.12110710144
-256.59432983398,108.81716918945
-16.131504058838,130.40901184082
-479.8935546875,7.792019367218
-107.5671005249,24.846548080444
-42.099620819092,85.464630126953
-46.591060638428,90.000534057617
-277.2138671875,-153.88159179688
-384.86602783203,340.06384277344
-395.83578491211,-95.723556518555
-512.24041748047,39.693725585938
-263.67306518555,121.45722198486
-158.26913452148,-29.945497512817
-147.31921386719,292.71798706055
-4.0595574378967,132.7829284668
-196.0611114502,-59.18302154541
-40.406448364258,112.59355163574
-477.79797363281,212.55531311035
-154.78776550293,16.692623138428
-148.46807861328,325.2248840332
-74.317596435547,56.9384765625
-300.97512817383,-91.025161743164
-6.1227073669434,128.59191894531
-37.990871429443,102.09814453125
-101.55633544922,38.309398651123
-176.19802856445,-54.293121337891
-84.112831115723,137.69006347656
-291.03176879883,-151.02799987793
-40.211036682129,76.267501831055
6.5632495880127,173.41006469727
-1362.9030761719,1212.0882568359
-94.014923095703,51.494270324707
-63.247650146484,67.282363891602
-58.799659729004,86.489921569824
-200.24864196777,-63.115901947021
-111.76512145996,30.73687171936
-148.17446899414,-9.8590126037598
-130.50564575195,-2.3571197986603
-12.178493499756,275.59729003906
-168.60269165039,-31.872903823853
-156.83917236328,405.94128417969
-248.50692749023,450.74221801758
-103.77157592773,30.462083816528
31.948757171631,176.97686767578
-69.785949707031,69.600280761719
-233.42471313477,138.45547485352
-155.63284301758,-29.466468811035
-178.79913330078,-49.979084014893
-282.61383056641,354.31298828125
-1.2320283651352,128.46948242188
-69.879783630371,277.46203613281
-370.8117980957,292.70306396484
15.449430465698,161.81936645508
72.077857971191,219.79359436035
-4.9952502250671,454.39376831055
-171.65650939941,62.150295257568
-188.03225708008,-60.772815704346
-235.87771606445,-105.76609802246
-174.18516540527,445.43020629883
-374.59115600586,-118.19326019287
-122.92943572998,53.894683837891
-161.70013427734,145.33383178711
66.068519592285,198.06060791016
-46.86653137207,86.822616577148
-47.223979949951,93.126533508301
-3.8769357204437,120.27223205566
-5182.3354492188,5450.0444335938
-112.20108795166,10.901616096497
-286.26037597656,706.97991943359
-152.45960998535,198.63981628418
-168.54957580566,41.74430847168
-95.444847106934,37.624980926514
-323.32922363281,230.25601196289
-184.52803039551,-46.650814056396
-71.601600646973,63.426872253418
-149.47866821289,-16.427886962891
-73.448783874512,55.290405273438
-171.07197570801,55.201732635498
-125.64818572998,-3.3281738758087
-128.27337646484,23.032785415649
-55.602561950684,74.925674438477
-24.070404052734,108.6614074707
-54.146236419678,88.686157226562
7.0207023620605,129.01834106445
-18.97047996521,140.90116882324
-282.94522094727,631.46246337891
-69.449653625488,168.66053771973
-67.193519592285,74.861717224121
-55.246768951416,88.913024902344
32.927452087402,154.04750061035
-193.87571716309,-56.285850524902
-243.16746520996,5.7031321525574
-321.81240844727,145.64031982422
-37.707195281982,99.475280761719
-397.69653320312,429.53176879883
-140.22566223145,84.98429107666
-25.964799880981,105.55550384521
31.721494674683,202.14123535156
-246.32000732422,303.97064208984
-795.25213623047,534.30627441406
-298.47717285156,115.9182510376
-130.0272064209,-2.3224833011627
-87.633583068848,36.665100097656
-14.799771308899,108.60302734375
-907.83508300781,139.76907348633
-67.398643493652,48.852848052979
-33.272872924805,127.73872375488
-81.904960632324,44.676261901855
-70.900207519531,105.40458679199
26.602838516235,157.48376464844
-1449.3109130859,1123.9859619141
9.4749584197998,144.33270263672
-456.27941894531,844.69671630859
-49.009029388428,89.558601379395
-115.60501098633,104.59036254883
29.410146713257,215.99111938477
-59.761215209961,124.99020385742
-166.24284362793,50.465518951416
-55.591480255127,84.851699829102
-165.81506347656,-32.051322937012
-14.132294654846,170.75207519531
-144.54284667969,-9.4810390472412
-174.03851318359,-33.563617706299
-182.81050109863,-52.280681610107
-34.296161651611,97.501937866211
64.927703857422,188.68266296387
-123.59577941895,15.794832229614
-58.970973968506,80.263244628906
-31.670997619629,102.44316864014
-652.81976318359,171.50256347656
-79.796806335449,49.803623199463
-99.241920471191,110.23929595947
-218.36918640137,169.90788269043
-167.7777557373,-36.389289855957
14.388172149658,127.24922943115
-149.60943603516,80.669662475586
-47.248954772949,83.289642333984
375.14569091797,1531.3519287109
-21.395439147949,96.303672790527
116.1277923584,385.65811157227
-846.45355224609,703.89141845703
-5.3877959251404,124.9400177002
-178.03224182129,200.92041015625
-146.87574768066,-8.5841226577759
-55.709255218506,536.08697509766
-725.32183837891,591.03601074219
-458.30090332031,352.02117919922
-385.44985961914,-26.715515136719
-33.053726196289,205.50169372559
-48.401393890381,88.641563415527
-120.53399658203,35.108703613281
-65.477630615234,99.862815856934
98.426605224609,241.63619995117
-154.35198974609,157.25831604004
37.823219299316,309.71768188477
75.16382598877,196.94314575195
-229.10289001465,175.90257263184
57.409996032715,182.81428527832
-101.49715423584,76.265213012695
-99.451370239258,36.403610229492
-193.7868347168,-51.573341369629
-217.83247375488,48.983955383301
-41.776763916016,94.357849121094
-96.608688354492,43.014549255371
-107.54817962646,26.553758621216
-173.36178588867,-38.273166656494
-54.824047088623,106.55805206299
45.68143081665,181.22764587402
-29.696266174316,99.750671386719
86.347023010254,206.67700195312
-85.811042785645,47.739658355713
-63.583728790283,69.106979370117
-281.80511474609,10.570772171021
-1041.9030761719,554.24652099609
-62.140319824219,73.405433654785
-120.28230285645,12.68385887146
114.85442352295,254.90943908691
-162.25970458984,-19.628797531128
-70.360191345215,53.590797424316
-168.2353515625,-24.813152313232
-2358.6860351562,2720.7250976562
-206.00291442871,-63.178970336914
-171.20179748535,59.076000213623
-76.818756103516,52.63187789917
28.869884490967,243.93766784668
-32.407176971436,216.06216430664
-31.825489044189,92.983451843262
-853.85473632812,868.23718261719
-106.64647674561,13.122456550598
53.062911987305,187.48419189453
17.294366836548,450.30520629883
-94.621620178223,41.463260650635
-266.05474853516,-130.56364440918
-1689.2847900391,1589.3692626953
-364.98812866211,499.04663085938
-51.290836334229,77.003997802734
-72.971984863281,61.164165496826
-44.536388397217,79.767501831055
-60.415264129639,65.43920135498
-176.27111816406,122.52297973633
23.773683547974,144.95903015137
-56.127391815186,174.13690185547
-250.5948638916,148.68019104004
-93.797645568848,360.70272827148
-38.590358734131,207.55973815918
-91.287178039551,44.673133850098
-559.03912353516,811.54913330078
-66.292839050293,62.100063323975
-52.334667205811,57.078144073486
-221.23524475098,-83.166145324707
-71.373908996582,48.801502227783
-72.76195526123,68.844848632812
-12.398910522461,672.12164306641
-96.603607177734,55.971340179443
152.23271179199,698.96899414062
-93.126892089844,54.230205535889
-126.77379608154,16.18957901001
-72.903633117676,63.889350891113
-472.62442016602,598.416015625
-7.7910003662109,116.25774383545
-25.790668487549,99.950500488281
177.55374145508,527.13665771484
-184.07106018066,356.05487060547
-88.745101928711,48.877407073975
-24.546825408936,119.76538085938
5.9242510795593,130.83787536621
-180.7979888916,63.701515197754
-73.012603759766,64.534553527832
75.044616699219,213.50799560547
-22.01692199707,96.076477050781
-17.631525039673,179.20431518555
-176.19372558594,217.10780334473
-4.4063792228699,121.59448242188
-44.96021270752,144.43072509766
94.550567626953,222.31085205078
-58.797115325928,69.921226501465
-44.455394744873,138.63139343262
-175.09938049316,135.00582885742
-139.14807128906,-4.9640460014343
13.870810508728,165.17533874512
-105.22004699707,29.505111694336
-157.96528625488,-12.742361068726
-64.016899108887,71.420196533203
-138.82191467285,27.692028045654
-31.274108886719,288.61798095703
-168.41058349609,238.72290039062
-554.07440185547,305.06463623047
-91.976005554199,38.640472412109
-10.084609985352,108.77822875977
-151.77206420898,3.4897239208221
-92.732009887695,359.98501586914
-73.449897766113,55.093158721924
-20.847932815552,122.47099304199
-14.094197273254,132.30809020996
-76.07568359375,314.90411376953
-80.501838684082,78.261329650879
-109.84758758545,19.413469314575
-62.761775970459,72.430786132812
-69.897911071777,69.576461791992
-9.8602380752563,93.419227600098
18.47705078125,174.22297668457
-67.309982299805,148.78137207031
-171.6487121582,100.32373809814
-77.441146850586,71.783645629883
-168.8431854248,-45.73929977417
-124.03590393066,23.508522033691
-119.40872192383,16.64154624939
-62.698852539062,69.300247192383
-44.788330078125,341.61740112305
-1.7946443557739,131.77030944824
-340.18698120117,193.71463012695
-24.348400115967,111.20038604736
-66.316413879395,81.106483459473
-53.671672821045,131.58258056641
8.7608833312988,141.65835571289
-286.62069702148,93.640571594238
-93.056015014648,65.529731750488
-118.43153381348,6.5852761268616
-122.08580780029,19.192699432373
-241.95188903809,-125.26075744629
-630.98016357422,492.8137512207
67.231704711914,199.48950195312
-167.83148193359,-4.7797722816467
-39.967620849609,135.44413757324
-131.17449951172,-1.3078978061676
-50.211959838867,190.48678588867
-101.0778427124,27.962135314941
-6.9178266525269,120.04376983643
-118.31214141846,56.266124725342
-117.19567108154,23.776195526123
-176.85247802734,-44.41869354248
1.1643884181976,140.40333557129
-123.58822631836,-2.2550692558289
-143.48149108887,-23.01407623291
-195.61578369141,1146.1947021484
99.201950073242,243.53732299805
-195.78015136719,-67.962715148926
-40.566848754883,105.75859832764
-134.71327209473,0.099895536899567
28.433897018433,153.58206176758
-24.872678756714,117.36664581299
-101.68517303467,37.699977874756
-220.60406494141,24.393768310547
-230.75933837891,-74.033973693848
-118.83772277832,26.651271820068
29.455986022949,241.09536743164
-159.48330688477,193.77612304688
2.2211589813232,138.99143981934
-209.59884643555,214.28923034668
-325.17962646484,518.33984375
-731.13006591797,12.326352119446
-396.98480224609,297.89538574219
-17.599473953247,116.32995605469
-114.19496154785,19.53346824646
114.58409881592,238.46246337891
123.46169281006,263.97720336914
66.942039489746,192.17359924316
-351.61044311523,143.98143005371
-89.860382080078,133.74032592773
-63.673072814941,82.674163818359
-10.003586769104,109.91868591309
-49.403400421143,79.5263671875
-31.143894195557,109.87372589111
-399.66616821289,236.64898681641
-97.790885925293,37.768562316895
-185.40670776367,-54.450054168701
-761.02990722656,426.18276977539
-50.91202545166,91.07682800293
35.734409332275,161.84671020508
-70.73876953125,73.01774597168
7.0641922950745,143.66902160645
-84.766525268555,55.76647567749
-36.437694549561,86.975234985352
-82.551864624023,81.980026245117
8.6878776550293,138.00234985352
-475.0993347168,39.114166259766
-28.469467163086,103.84289550781
-220.544921875,403.21978759766
-404.01608276367,15.710976600647
-131.39605712891,286.69445800781
-50.133853912354,86.238456726074
-316.57778930664,513.01129150391
-279.70971679688,211.84992980957
-153.23059082031,82.90860748291
-33.23539352417,91.588478088379
-24.285732269287,97.887649536133
-84.457664489746,47.330142974854
-150.66229248047,71.634208679199
49.17106628418,183.5590057373
40.461975097656,167.39012145996
-7361.0698242188,7124.0405273438
-39.445316314697,94.701652526855
-73.858695983887,50.838397979736
-412.90310668945,488.01635742188
-278.41442871094,-149.0947265625
